<svg width="16" height="16" viewBox="0 0 16 16" fill="none" xmlns="http://www.w3.org/2000/svg">
<path fill-rule="evenodd" clip-rule="evenodd" d="M11 1.84961L14.3201 4.61635L13.6799 5.38457L11.5 3.56798V10.0005C11.5 12.4857 9.48528 14.5005 7 14.5005C4.51472 14.5005 2.5 12.4857 2.5 10.0005V7.00046H3.5V10.0005C3.5 11.9335 5.067 13.5005 7 13.5005C8.933 13.5005 10.5 11.9335 10.5 10.0005V3.56798L8.32009 5.38457L7.67991 4.61635L11 1.84961Z" fill="white"/>
<rect x="5" y="8" width="4" height="4" rx="2" fill="white"/>
</svg>
