<svg width="17" height="18" viewBox="0 0 17 18" fill="none" xmlns="http://www.w3.org/2000/svg">
<path fill-rule="evenodd" clip-rule="evenodd" d="M1.42522 3.54914L7.02603 0.348669C7.83061 -0.115853 8.82189 -0.115853 9.6226 0.346451L15.2273 3.54914C16.031 4.01318 16.5265 4.87042 16.5275 5.79953L16.5275 12.2015C16.5265 13.1296 16.031 13.9868 15.2234 14.4531L9.62646 17.6513C8.82189 18.1159 7.83061 18.1159 7.02989 17.6535L1.42522 14.4509C0.621464 13.9868 0.125952 13.1296 0.125 12.2005V5.79851C0.125952 4.87042 0.621464 4.01318 1.42522 3.54914ZM2.42153 5.28383L2.35039 5.33284C2.20959 5.44552 2.12556 5.61694 2.12537 5.79962L2.12537 12.1995C2.12559 12.4137 2.23993 12.6115 2.42153 12.7163L8.02621 15.919C8.21186 16.0262 8.44059 16.0262 8.63011 15.9168L14.2271 12.7186C14.4125 12.6115 14.5269 12.4137 14.5271 12.2006L14.5271 5.80064C14.5269 5.58649 14.4125 5.38869 14.2309 5.28383L8.62625 2.08115C8.44059 1.97396 8.21186 1.97396 8.02235 2.08336L2.42153 5.28383Z" fill="#333333"/>
</svg>
